-- Merging decision tree log ---
manifest
ADDED from C:\Users\huyki\AppData\Local\Pub\Cache\hosted\pub.dev\speech_to_text-6.4.0\android\src\main\AndroidManifest.xml:1:1-6:12
INJECTED from C:\Users\huyki\AppData\Local\Pub\Cache\hosted\pub.dev\speech_to_text-6.4.0\android\src\main\AndroidManifest.xml:1:1-6:12
INJECTED from C:\Users\huyki\AppData\Local\Pub\Cache\hosted\pub.dev\speech_to_text-6.4.0\android\src\main\AndroidManifest.xml:1:1-6:12
	package
		ADDED from C:\Users\huyki\AppData\Local\Pub\Cache\hosted\pub.dev\speech_to_text-6.4.0\android\src\main\AndroidManifest.xml:2:3-39
		INJECTED from C:\Users\huyki\AppData\Local\Pub\Cache\hosted\pub.dev\speech_to_text-6.4.0\android\src\main\AndroidManifest.xml
		INJECTED from C:\Users\huyki\AppData\Local\Pub\Cache\hosted\pub.dev\speech_to_text-6.4.0\android\src\main\AndroidManifest.xml
	xmlns:android
		ADDED from C:\Users\huyki\AppData\Local\Pub\Cache\hosted\pub.dev\speech_to_text-6.4.0\android\src\main\AndroidManifest.xml:1:11-69
uses-permission#android.permission.BLUETOOTH_CONNECT
ADDED from C:\Users\huyki\AppData\Local\Pub\Cache\hosted\pub.dev\speech_to_text-6.4.0\android\src\main\AndroidManifest.xml:4:5-76
	android:name
		ADDED from C:\Users\huyki\AppData\Local\Pub\Cache\hosted\pub.dev\speech_to_text-6.4.0\android\src\main\AndroidManifest.xml:4:22-73
uses-permission#android.permission.MODIFY_PHONE_STATE
ADDED from C:\Users\huyki\AppData\Local\Pub\Cache\hosted\pub.dev\speech_to_text-6.4.0\android\src\main\AndroidManifest.xml:5:5-77
	android:name
		ADDED from C:\Users\huyki\AppData\Local\Pub\Cache\hosted\pub.dev\speech_to_text-6.4.0\android\src\main\AndroidManifest.xml:5:22-74
uses-sdk
INJECTED from C:\Users\huyki\AppData\Local\Pub\Cache\hosted\pub.dev\speech_to_text-6.4.0\android\src\main\AndroidManifest.xml reason: use-sdk injection requested
INJECTED from C:\Users\huyki\AppData\Local\Pub\Cache\hosted\pub.dev\speech_to_text-6.4.0\android\src\main\AndroidManifest.xml
INJECTED from C:\Users\huyki\AppData\Local\Pub\Cache\hosted\pub.dev\speech_to_text-6.4.0\android\src\main\AndroidManifest.xml
INJECTED from C:\Users\huyki\AppData\Local\Pub\Cache\hosted\pub.dev\speech_to_text-6.4.0\android\src\main\AndroidManifest.xml
INJECTED from C:\Users\huyki\AppData\Local\Pub\Cache\hosted\pub.dev\speech_to_text-6.4.0\android\src\main\AndroidManifest.xml
	android:targetSdkVersion
		INJECTED from C:\Users\huyki\AppData\Local\Pub\Cache\hosted\pub.dev\speech_to_text-6.4.0\android\src\main\AndroidManifest.xml
		ADDED from C:\Users\huyki\AppData\Local\Pub\Cache\hosted\pub.dev\speech_to_text-6.4.0\android\src\main\AndroidManifest.xml
		INJECTED from C:\Users\huyki\AppData\Local\Pub\Cache\hosted\pub.dev\speech_to_text-6.4.0\android\src\main\AndroidManifest.xml
	android:minSdkVersion
		INJECTED from C:\Users\huyki\AppData\Local\Pub\Cache\hosted\pub.dev\speech_to_text-6.4.0\android\src\main\AndroidManifest.xml
		ADDED from C:\Users\huyki\AppData\Local\Pub\Cache\hosted\pub.dev\speech_to_text-6.4.0\android\src\main\AndroidManifest.xml
		INJECTED from C:\Users\huyki\AppData\Local\Pub\Cache\hosted\pub.dev\speech_to_text-6.4.0\android\src\main\AndroidManifest.xml
